day-8-activities-data-viz
…
greenhouse_summary_yr_type <- greenhouse %>% 
  group_by(Calendar_Year, Commodity_Type) %>% 
  summarize(sum = sum(Emissions_mtCO2e, na.rm = TRUE))

## `summarise()` has grouped output by 'Calendar_Year'. You can override using the `.groups` argument.

greenhouse_summary_yr_type

## # A tibble: 186 x 3
## # Groups:   Calendar_Year [10]
##    Calendar_Year Commodity_Type           sum
##            <dbl> <chr>                  <dbl>
##  1          1990 Animal Waste         72192. 
##  2          1990 B100                     0  
##  3          1990 B20                      0  
##  4          1990 B5                       0  
##  5          1990 CNG                   2412. 
##  6          1990 Diesel              359806. 
##  7          1990 Electricity        2477175. 
##  8          1990 Fugitive Emissions    3453. 
##  9          1990 Gas Oil                 70.5
## 10          1990 Gasoline           2059626. 
## # ... with 176 more rows

greenhouse_subset <- greenhouse %>% 
  filter(Calendar_Year %in% "2005":"2019") %>% 
  filter(str_detect(Sector_Detail2, "PG&E")) %>% 
  select(Calendar_Year, Sector_Detail2, Emissions_mtCO2e)

greenhouse_subset

## # A tibble: 176 x 3
##    Calendar_Year Sector_Detail2                                 Emissions_mtCO2e
##            <dbl> <chr>                                                     <dbl>
##  1          2005 PG&E District                                                0 
##  2          2005 PG&E District Electric Power Transmission & D~               0 
##  3          2005 PG&E Municipal Buildings                                     0 
##  4          2005 PG&E District Natural Gas Distribution Fugiti~               0 
##  5          2005 PG&E District                                                0 
##  6          2005 PG&E District Natural Gas Distribution Fugiti~               0 
##  7          2005 PG&E Municipal Buildings Electric Power Trans~               0 
##  8          2005 PG&E Commercial & Industrial                            506726.
##  9          2005 PG&E Residential                                        771445.
## 10          2005 PG&E Municipal Buildings                                122997.
## # ... with 166 more rows
…
